[{
	"_id": {
		"$oid": "5fa99681272b357ea51bb513"
	},
	"KSATs": [],
	"course": "All_Personnel",
	"module": "Orientation",
	"topic": "Orientation",
	"subject": "Orientation",
	"lecture_time": 0,
	"perf_demo_time": 0,
	"references": [],
	"lesson_objectives": [],
	"performance_objectives": [],
	"module_id": "ORIENTATION",
	"network": "Commercial",
	"work-roles": [
		"90COS"
	],
	"map_for": "training",
	"topic_path": "mdbook/src/orientation",
	"created_on": "2020-11-09"
}]

