{

    "PO": {
        "courses":[
            {
                "name": "PSPO I (NIPR)",
                "url": "https://jira.90cos.hmc.hpc.mil/servicedesk/customer/portal/11"
            },
            {
                "name": "Qualification Exam (NIPR)",
                "url": "https://jira.90cos.hmc.hpc.mil/servicedesk/customer/portal/11",
                "lessons": [
                    {
                        "name": "Knowledge Study Material",
                        "url": "https://gitlab.com/90cos/product-owner-po-eval-study/basic-po/-/blob/master/knowledge/README.md#master-question-list"
                    },
                    {
                        "name": "Performance Study Material",
                        "url": ""
                    }
                ]
            }
        ],
        "follow-ons": [
            "SPO"
        ]
    },
    "SPO": {
        "courses":[],
        "follow-ons": [
            "Agile Coach"
        ]
    },
    "SM": {
        "courses":[
            {
                "name": "PSM I (NIPR)",
                "url": "https://jira.90cos.hmc.hpc.mil/servicedesk/customer/portal/11"
            },
            {
                "name": "[Temp] Same as PO Exam (NIPR)",
                "url": "https://jira.90cos.hmc.hpc.mil/servicedesk/customer/portal/11",
                "lessons": [
                    {
                        "name": "PO Knowledge Study Material",
                        "url": "https://gitlab.com/90cos/product-owner-po-eval-study/basic-po/-/blob/master/knowledge/README.md#master-question-list"
                    },
                    {
                        "name": "PO Performance Study Material",
                        "url": ""
                    }
                ]
            }
        ],
        "follow-ons": [
            "SSM"
        ]
    },
    "SSM": {
        "courses": [],
        "follow-ons": [
            "Agile Coach"
        ]
    },
    "Agile Coach": {
        "courses": [
            {
                "name": "SEE",
                "url": "https://90cos.gitlab.io/cyt/admin/docs/evaluations/SEE/training.html"
            },
            {
                "name": "Instructor",
                "url": ""
            }
        ]
    },
    "CCD": {
        "courses": [
            {
                "name": "IDF (NIPR)",
                "url": "https://jira.90cos.hmc.hpc.mil/servicedesk/customer/portal/11",
                "lessons": [
                    {
                        "name": "Python",
                        "url": "https://90cos.gitlab.io/cyt/training/modules/python/"
                    },
                    {
                        "name": "C Programming",
                        "url": "https://90cos.gitlab.io/cyt/training/modules/C-Programming/"
                    },
                    {
                        "name": "Reverse Engineering",
                        "url": "https://90cos.gitlab.io/cyt/training/modules/reverse-engineering/"
                    },
                    {
                        "name": "Algorithms",
                        "url": "https://90cos.gitlab.io/cyt/training/modules/algorithms/"
                    },
                    {
                        "name": "Powershell",
                        "url": "https://90cos.gitlab.io/cyt/training/modules/powershell/"
                    },
                    {
                        "name": "Debugging",
                        "url": "https://90cos.gitlab.io/cyt/training/modules/debugging/"
                    },
                    {
                        "name": "Pseudocode",
                        "url": "https://90cos.gitlab.io/cyt/training/modules/pseudocode/"
                    },
                    {
                        "name": "C++ Programming",
                        "url": "https://90cos.gitlab.io/cyt/training/modules/cpp-programming/"
                    },
                    {
                        "name": "Git",
                        "url": "https://90cos.gitlab.io/cyt/training/modules/introduction-to-git/"
                    },
                    {
                        "name": "Assembly",
                        "url": "https://90cos.gitlab.io/cyt/training/modules/assembly/"
                    },
                    {
                        "name": "Networking",
                        "url": "https://90cos.gitlab.io/cyt/training/modules/network-programming/"
                    }
                ]
            },
            {
                "name": "Qualification Exam (NIPR)",
                "url": "https://jira.90cos.hmc.hpc.mil/servicedesk/customer/portal/11",
                "lessons": [
                    {
                        "name": "Knowledge Study Material",
                        "url": "https://gitlab.com/90cos/cyber-capability-developer-ccd-eval-study/ccd-master-question-file/-/tree/master/knowledge#master-question-list"
                    },

                    {
                        "name": "Performance Study Material",
                        "url": "https://gitlab.com/90cos/cyber-capability-developer-ccd-eval-study/ccd-master-question-file/-/tree/master/performance"
                    }
                ]
            }
        ],
        "follow-ons": [
            "SCCD-L",
            "SCCD-W",
            "Special Missions",
            "TAE"
        ]
    },
    "SCCD-L": {
        "courses": [
            {
                "name": "ACTP (NIPR)",
                "url": "https://jira.90cos.hmc.hpc.mil/servicedesk/customer/portal/11"
            },
            {
                "name": "Qualification Exam (NIPR)",
                "url": "https://jira.90cos.hmc.hpc.mil/servicedesk/customer/portal/11",
                "lessons": [
                    {
                        "name": "Performance Study Material",
                        "url": "https://gitlab.com/90cos/senior-ccd-linux-sccd-l-eval-study/sccd-l-master-question-file/-/tree/master/performance"
                    }
                ]
            }
        ],
        "follow-ons": [
            "MCCD"
        ]
    },
    "SCCD-W": {
        "courses": [
            {
                "name": "ACTP (NIPR)",
                "url": "https://jira.90cos.hmc.hpc.mil/servicedesk/customer/portal/11"
            },
            {
                "name": "Qualification Exam (NIPR)",
                "url": "https://jira.90cos.hmc.hpc.mil/servicedesk/customer/portal/11",
                "lessons": [
                    {
                        "name": "Performance Study Material",
                        "url": "https://gitlab.com/90cos/senior-ccd-windows-sccd-w-eval-study/sccd-w-master-question-file/-/tree/master/performance"
                    }
                ]
            }
        ],
        "follow-ons": [
            "MCCD"
        ]
    },
    "MCCD": {
        "courses": [
            {
                "name": "SEE",
                "url": "https://90cos.gitlab.io/cyt/admin/docs/evaluations/SEE/training.html"
            },
            {
                "name": "Instructor",
                "url": ""
            }
        ],
        "follow-ons": []
    },
    "Special Missions": {
        "courses":[
            {
                "name": "VR",
                "url": "https://jira.90cos.hmc.hpc.mil/servicedesk/customer/portal/11",
                "lessons": [
                    {
                        "name": "https://ghidra.re",
                        "url": "https://ghidra.re/online-courses/"
                    } 
                ]
            },
            {
                "name": "Mobile",
                "url": "https://jira.90cos.hmc.hpc.mil/servicedesk/customer/portal/11"
            },
            {
                "name": "Networking",
                "url": "https://jira.90cos.hmc.hpc.mil/servicedesk/customer/portal/11"
            }          
        ],
        "follow-ons": [
        ]
    },


    "Sysadmin": {
        "courses":[],
        "follow-ons": [
            "TAE"
        ]
    },
    "TAE": {
        "courses":[],
        "follow-ons": [
            "MCCD"
        ]
    },

    
    "JSRE": {
        "courses":[],
        "trn-rel-link-urls": [],
        "evl-rel-link-urls": [],
        "follow-ons": [
            "SSRE"
        ]
    },
    "SSRE": {
        "courses":[],
        "trn-rel-link-urls": [],
        "evl-rel-link-urls": [],
        "follow-ons": [
        ]
    }
}
