[
    {
        "work-role": "PO",
        "ksat_id": "A0643",
        "proficiency": "2"
    },
    {
        "work-role": "PO",
        "ksat_id": "A0644",
        "proficiency": "2"
    },
    {
        "work-role": "PO",
        "ksat_id": "A0635",
        "proficiency": "2"
    },
    {
        "work-role": "PO",
        "ksat_id": "A0645",
        "proficiency": "2"
    },
    {
        "work-role": "PO",
        "ksat_id": "A0646",
        "proficiency": "2"
    },
    {
        "work-role": "PO",
        "ksat_id": "A0647",
        "proficiency": "2"
    },
    {
        "work-role": "PO",
        "ksat_id": "A0650",
        "proficiency": "2"
    },
    {
        "work-role": "PO",
        "ksat_id": "A0648",
        "proficiency": "1"
    },
    {
        "work-role": "PO",
        "ksat_id": "A0651",
        "proficiency": "2"
    },
    {
        "work-role": "PO",
        "ksat_id": "A0649",
        "proficiency": "2"
    },
    {
        "work-role": "PO",
        "ksat_id": "A0638",
        "proficiency": "2"
    },
    {
        "work-role": "PO",
        "ksat_id": "A0636",
        "proficiency": "2"
    },
    {
        "work-role": "PO",
        "ksat_id": "A0637",
        "proficiency": "2"
    },
    {
        "work-role": "PO",
        "ksat_id": "A0639",
        "proficiency": "2"
    },
    {
        "work-role": "PO",
        "ksat_id": "A0641",
        "proficiency": "1"
    },
    {
        "work-role": "PO",
        "ksat_id": "A0640",
        "proficiency": "1"
    },
    {
        "work-role": "PO",
        "ksat_id": "A0642",
        "proficiency": "1"
    },
    {
        "work-role": "PO",
        "ksat_id": "K0260",
        "proficiency": "C"
    },
    {
        "work-role": "PO",
        "ksat_id": "K0261",
        "proficiency": "C"
    },
    {
        "work-role": "PO",
        "ksat_id": "K0262",
        "proficiency": "C"
    },
    {
        "work-role": "PO",
        "ksat_id": "K0263",
        "proficiency": "C"
    },
    {
        "work-role": "PO",
        "ksat_id": "K0369",
        "proficiency": "B"
    },
    {
        "work-role": "PO",
        "ksat_id": "K0372",
        "proficiency": "A"
    },
    {
        "work-role": "PO",
        "ksat_id": "K0368",
        "proficiency": "B"
    },
    {
        "work-role": "PO",
        "ksat_id": "K0370",
        "proficiency": "B"
    },
    {
        "work-role": "PO",
        "ksat_id": "K0371",
        "proficiency": "B"
    },
    {
        "work-role": "PO",
        "ksat_id": "K0373",
        "proficiency": "B"
    },
    {
        "work-role": "PO",
        "ksat_id": "K0374",
        "proficiency": "A"
    },
    {
        "work-role": "PO",
        "ksat_id": "K0377",
        "proficiency": "A"
    },
    {
        "work-role": "PO",
        "ksat_id": "K0376",
        "proficiency": "A"
    },
    {
        "work-role": "PO",
        "ksat_id": "K0366",
        "proficiency": "A"
    },
    {
        "work-role": "PO",
        "ksat_id": "K0381",
        "proficiency": "B"
    },
    {
        "work-role": "PO",
        "ksat_id": "K0383",
        "proficiency": "A"
    },
    {
        "work-role": "PO",
        "ksat_id": "K0386",
        "proficiency": "A"
    },
    {
        "work-role": "PO",
        "ksat_id": "K0367",
        "proficiency": "B"
    },
    {
        "work-role": "PO",
        "ksat_id": "K0387",
        "proficiency": "A"
    },
    {
        "work-role": "PO",
        "ksat_id": "K0382",
        "proficiency": "B"
    },
    {
        "work-role": "PO",
        "ksat_id": "K0391",
        "proficiency": "B"
    },
    {
        "work-role": "PO",
        "ksat_id": "K0392",
        "proficiency": "B"
    },
    {
        "work-role": "PO",
        "ksat_id": "K0393",
        "proficiency": "B"
    },
    {
        "work-role": "PO",
        "ksat_id": "K0394",
        "proficiency": "B"
    },
    {
        "work-role": "PO",
        "ksat_id": "K0395",
        "proficiency": "B"
    },
    {
        "work-role": "PO",
        "ksat_id": "K0396",
        "proficiency": "B"
    },
    {
        "work-role": "PO",
        "ksat_id": "K0399",
        "proficiency": "C"
    },
    {
        "work-role": "PO",
        "ksat_id": "K0400",
        "proficiency": "C"
    },
    {
        "work-role": "PO",
        "ksat_id": "K0401",
        "proficiency": "B"
    },
    {
        "work-role": "PO",
        "ksat_id": "K0403",
        "proficiency": "A"
    },
    {
        "work-role": "PO",
        "ksat_id": "K0402",
        "proficiency": "B"
    },
    {
        "work-role": "PO",
        "ksat_id": "K0406",
        "proficiency": "B"
    },
    {
        "work-role": "PO",
        "ksat_id": "K0405",
        "proficiency": "B"
    },
    {
        "work-role": "PO",
        "ksat_id": "K0404",
        "proficiency": "B"
    },
    {
        "work-role": "PO",
        "ksat_id": "K0407",
        "proficiency": "A"
    },
    {
        "work-role": "PO",
        "ksat_id": "K0411",
        "proficiency": "B"
    },
    {
        "work-role": "PO",
        "ksat_id": "K0412",
        "proficiency": "B"
    },
    {
        "work-role": "PO",
        "ksat_id": "K0413",
        "proficiency": "B"
    },
    {
        "work-role": "PO",
        "ksat_id": "K0414",
        "proficiency": "B"
    },
    {
        "work-role": "PO",
        "ksat_id": "K0408",
        "proficiency": "B"
    },
    {
        "work-role": "PO",
        "ksat_id": "K0415",
        "proficiency": "A"
    },
    {
        "work-role": "PO",
        "ksat_id": "K0417",
        "proficiency": "A"
    },
    {
        "work-role": "PO",
        "ksat_id": "K0418",
        "proficiency": "B"
    },
    {
        "work-role": "PO",
        "ksat_id": "K0419",
        "proficiency": "B"
    },
    {
        "work-role": "PO",
        "ksat_id": "K0420",
        "proficiency": "A"
    },
    {
        "work-role": "PO",
        "ksat_id": "K0416",
        "proficiency": "B"
    },
    {
        "work-role": "PO",
        "ksat_id": "K0421",
        "proficiency": "B"
    },
    {
        "work-role": "PO",
        "ksat_id": "K0434",
        "proficiency": "B"
    },
    {
        "work-role": "PO",
        "ksat_id": "K0422",
        "proficiency": "B"
    },
    {
        "work-role": "PO",
        "ksat_id": "S0365",
        "proficiency": "2"
    },
    {
        "work-role": "PO",
        "ksat_id": "K0423",
        "proficiency": "B"
    },
    {
        "work-role": "PO",
        "ksat_id": "K0441",
        "proficiency": "A"
    },
    {
        "work-role": "PO",
        "ksat_id": "S0369",
        "proficiency": "1"
    },
    {
        "work-role": "PO",
        "ksat_id": "K0457",
        "proficiency": ""
    },
    {
        "work-role": "PO",
        "ksat_id": "K0460",
        "proficiency": ""
    },
    {
        "work-role": "PO",
        "ksat_id": "K0461",
        "proficiency": ""
    },
    {
        "work-role": "PO",
        "ksat_id": "K0458",
        "proficiency": ""
    },
    {
        "work-role": "PO",
        "ksat_id": "K0464",
        "proficiency": ""
    },
    {
        "work-role": "PO",
        "ksat_id": "K0462",
        "proficiency": ""
    },
    {
        "work-role": "PO",
        "ksat_id": "K0466",
        "proficiency": ""
    },
    {
        "work-role": "PO",
        "ksat_id": "K0463",
        "proficiency": ""
    },
    {
        "work-role": "PO",
        "ksat_id": "K0467",
        "proficiency": ""
    },
    {
        "work-role": "PO",
        "ksat_id": "K0469",
        "proficiency": ""
    },
    {
        "work-role": "PO",
        "ksat_id": "K0470",
        "proficiency": "B"
    },
    {
        "work-role": "PO",
        "ksat_id": "K0471",
        "proficiency": ""
    },
    {
        "work-role": "PO",
        "ksat_id": "K0468",
        "proficiency": ""
    },
    {
        "work-role": "PO",
        "ksat_id": "K0473",
        "proficiency": ""
    },
    {
        "work-role": "PO",
        "ksat_id": "K0474",
        "proficiency": ""
    },
    {
        "work-role": "PO",
        "ksat_id": "K0475",
        "proficiency": ""
    },
    {
        "work-role": "PO",
        "ksat_id": "K0476",
        "proficiency": ""
    },
    {
        "work-role": "PO",
        "ksat_id": "K0478",
        "proficiency": ""
    },
    {
        "work-role": "PO",
        "ksat_id": "K0479",
        "proficiency": ""
    },
    {
        "work-role": "PO",
        "ksat_id": "K0477",
        "proficiency": ""
    },
    {
        "work-role": "PO",
        "ksat_id": "K0480",
        "proficiency": ""
    },
    {
        "work-role": "PO",
        "ksat_id": "K0481",
        "proficiency": ""
    },
    {
        "work-role": "PO",
        "ksat_id": "K0623",
        "proficiency": "C"
    },
    {
        "work-role": "PO",
        "ksat_id": "K0649",
        "proficiency": "B"
    },
    {
        "work-role": "PO",
        "ksat_id": "K0652",
        "proficiency": "B"
    },
    {
        "work-role": "PO",
        "ksat_id": "K0656",
        "proficiency": "B"
    },
    {
        "work-role": "PO",
        "ksat_id": "K0655",
        "proficiency": "B"
    },
    {
        "work-role": "PO",
        "ksat_id": "K0657",
        "proficiency": "B"
    },
    {
        "work-role": "PO",
        "ksat_id": "K0659",
        "proficiency": "B"
    },
    {
        "work-role": "PO",
        "ksat_id": "K0658",
        "proficiency": "A"
    },
    {
        "work-role": "PO",
        "ksat_id": "K0660",
        "proficiency": "B"
    },
    {
        "work-role": "PO",
        "ksat_id": "K0662",
        "proficiency": "B"
    },
    {
        "work-role": "PO",
        "ksat_id": "K0663",
        "proficiency": "B"
    },
    {
        "work-role": "PO",
        "ksat_id": "K0664",
        "proficiency": "B"
    },
    {
        "work-role": "PO",
        "ksat_id": "K0666",
        "proficiency": "C"
    },
    {
        "work-role": "PO",
        "ksat_id": "K0665",
        "proficiency": "A"
    },
    {
        "work-role": "PO",
        "ksat_id": "K0667",
        "proficiency": "C"
    },
    {
        "work-role": "PO",
        "ksat_id": "K0669",
        "proficiency": "B"
    },
    {
        "work-role": "PO",
        "ksat_id": "K0668",
        "proficiency": "B"
    },
    {
        "work-role": "PO",
        "ksat_id": "K0889",
        "proficiency": ""
    },
    {
        "work-role": "PO",
        "ksat_id": "S0188",
        "proficiency": "2"
    },
    {
        "work-role": "PO",
        "ksat_id": "S0194",
        "proficiency": "2"
    },
    {
        "work-role": "PO",
        "ksat_id": "S0200",
        "proficiency": "2"
    },
    {
        "work-role": "PO",
        "ksat_id": "A0745",
        "proficiency": "2"
    },
    {
        "work-role": "PO",
        "ksat_id": "S0359",
        "proficiency": "2"
    },
    {
        "work-role": "PO",
        "ksat_id": "S0360",
        "proficiency": "2"
    },
    {
        "work-role": "PO",
        "ksat_id": "S0361",
        "proficiency": "2"
    },
    {
        "work-role": "PO",
        "ksat_id": "S0362",
        "proficiency": "2"
    },
    {
        "work-role": "PO",
        "ksat_id": "S0363",
        "proficiency": "2"
    },
    {
        "work-role": "PO",
        "ksat_id": "S0364",
        "proficiency": "2"
    },
    {
        "work-role": "PO",
        "ksat_id": "S0366",
        "proficiency": "2"
    },
    {
        "work-role": "PO",
        "ksat_id": "S0367",
        "proficiency": "2"
    },
    {
        "work-role": "PO",
        "ksat_id": "S0368",
        "proficiency": "2"
    },
    {
        "work-role": "PO",
        "ksat_id": "S0371",
        "proficiency": "2"
    },
    {
        "work-role": "PO",
        "ksat_id": "S0372",
        "proficiency": "2"
    },
    {
        "work-role": "PO",
        "ksat_id": "S0373",
        "proficiency": "2"
    },
    {
        "work-role": "PO",
        "ksat_id": "S0374",
        "proficiency": "2"
    },
    {
        "work-role": "PO",
        "ksat_id": "S0375",
        "proficiency": "2"
    },
    {
        "work-role": "PO",
        "ksat_id": "K0452",
        "proficiency": "B"
    },
    {
        "work-role": "PO",
        "ksat_id": "K0453",
        "proficiency": "B"
    },
    {
        "work-role": "PO",
        "ksat_id": "K0454",
        "proficiency": "B"
    },
    {
        "work-role": "PO",
        "ksat_id": "K0455",
        "proficiency": "B"
    },
    {
        "work-role": "PO",
        "ksat_id": "K0456",
        "proficiency": "B"
    },
    {
        "work-role": "PO",
        "ksat_id": "S0342",
        "proficiency": "2"
    },
    {
        "work-role": "PO",
        "ksat_id": "S0344",
        "proficiency": "2"
    },
    {
        "work-role": "PO",
        "ksat_id": "S0345",
        "proficiency": "2"
    },
    {
        "work-role": "PO",
        "ksat_id": "S0346",
        "proficiency": "2"
    },
    {
        "work-role": "PO",
        "ksat_id": "S0351",
        "proficiency": "2"
    },
    {
        "work-role": "PO",
        "ksat_id": "S0352",
        "proficiency": "2"
    },
    {
        "work-role": "PO",
        "ksat_id": "S0355",
        "proficiency": "2"
    },
    {
        "work-role": "PO",
        "ksat_id": "S0356",
        "proficiency": "2"
    },
    {
        "work-role": "PO",
        "ksat_id": "S0357",
        "proficiency": "2"
    },
    {
        "work-role": "PO",
        "ksat_id": "S0358",
        "proficiency": "2"
    },
    {
        "work-role": "PO",
        "ksat_id": "S0380",
        "proficiency": "2"
    },
    {
        "work-role": "PO",
        "ksat_id": "S0339",
        "proficiency": "2"
    },
    {
        "work-role": "PO",
        "ksat_id": "S0340",
        "proficiency": "2"
    },
    {
        "work-role": "PO",
        "ksat_id": "K0431",
        "proficiency": "B"
    },
    {
        "work-role": "PO",
        "ksat_id": "A0459",
        "proficiency": "3"
    },
    {
        "work-role": "PO",
        "ksat_id": "T0035",
        "proficiency": "2"
    },
    {
        "work-role": "PO",
        "ksat_id": "A0746",
        "proficiency": "2"
    },
    {
        "work-role": "PO",
        "ksat_id": "S0393",
        "proficiency": "3"
    },
    {
        "work-role": "PO",
        "ksat_id": "S0392",
        "proficiency": "3"
    },
    {
        "work-role": "PO",
        "ksat_id": "K0905",
        "proficiency": "C"
    },
    {
        "work-role": "PO",
        "ksat_id": "K0906",
        "proficiency": "C"
    },
    {
        "work-role": "PO",
        "ksat_id": "K0907",
        "proficiency": "C"
    },
    {
        "work-role": "PO",
        "ksat_id": "K0924",
        "proficiency": "C"
    },
    {
        "work-role": "PO",
        "ksat_id": "K0925",
        "proficiency": "B"
    },
    {
        "work-role": "PO",
        "ksat_id": "K0927",
        "proficiency": "B"
    },
    {
        "work-role": "PO",
        "ksat_id": "K0930",
        "proficiency": "B"
    },
    {
        "work-role": "PO",
        "ksat_id": "K0932",
        "proficiency": "B"
    },
    {
        "work-role": "PO",
        "ksat_id": "K0933",
        "proficiency": "B"
    },
    {
        "work-role": "PO",
        "ksat_id": "K0934",
        "proficiency": "B"
    },
    {
        "work-role": "PO",
        "ksat_id": "K0931",
        "proficiency": "B"
    },
    {
        "work-role": "PO",
        "ksat_id": "K0651",
        "proficiency": "B"
    },
    {
        "work-role": "PO",
        "ksat_id": "K0892",
        "proficiency": "B"
    },
    {
        "work-role": "PO",
        "ksat_id": "K0622",
        "proficiency": "B"
    },
    {
        "work-role": "PO",
        "ksat_id": "K0627",
        "proficiency": "B"
    },
    {
        "work-role": "PO",
        "ksat_id": "S0337",
        "proficiency": "2"
    },
    {
        "work-role": "PO",
        "ksat_id": "S0341",
        "proficiency": "2"
    },
    {
        "work-role": "PO",
        "ksat_id": "S0349",
        "proficiency": "2"
    },
    {
        "work-role": "PO",
        "ksat_id": "S0350",
        "proficiency": "2"
    },
    {
        "work-role": "PO",
        "ksat_id": "S0354",
        "proficiency": "2"
    },
    {
        "work-role": "PO",
        "ksat_id": "S0341",
        "proficiency": "2"
    },
    {
        "work-role": "PO",
        "ksat_id": "T0007",
        "proficiency": "2"
    },
    {
        "work-role": "PO",
        "ksat_id": "K0650",
        "proficiency": "B"
    },
    {
        "work-role": "PO",
        "ksat_id": "K0651",
        "proficiency": "B"
    },
    {
        "work-role": "PO",
        "ksat_id": "K0941",
        "proficiency": "B"
    },
    {
        "work-role": "PO",
        "ksat_id": "K0942",
        "proficiency": "B"
    },
    {
        "work-role": "PO",
        "ksat_id": "K0943",
        "proficiency": "B"
    },
    {
        "work-role": "PO",
        "ksat_id": "K0944",
        "proficiency": "B"
    },
    {
        "work-role": "PO",
        "ksat_id": "K0945",
        "proficiency": "B"
    },
    {
        "work-role": "PO",
        "ksat_id": "K0946",
        "proficiency": "B"
    },
    {
        "work-role": "PO",
        "ksat_id": "K0947",
        "proficiency": "B"
    },
    {
        "work-role": "PO",
        "ksat_id": "K0948",
        "proficiency": "B"
    }
]
