[
    {
        "work-role": "SCCD-W",
        "ksat_id": "T0001",
        "proficiency": "2"
    },
    {
        "work-role": "SCCD-W",
        "ksat_id": "T0002",
        "proficiency": "2"
    },
    {
        "work-role": "SCCD-W",
        "ksat_id": "T0003",
        "proficiency": "2"
    },
    {
        "work-role": "SCCD-W",
        "ksat_id": "T0004",
        "proficiency": "2"
    },
    {
        "work-role": "SCCD-W",
        "ksat_id": "T0005",
        "proficiency": "2"
    },
    {
        "work-role": "SCCD-W",
        "ksat_id": "T0006",
        "proficiency": "2"
    },
    {
        "work-role": "SCCD-W",
        "ksat_id": "T0007",
        "proficiency": "2"
    },
    {
        "work-role": "SCCD-W",
        "ksat_id": "T0008",
        "proficiency": "2"
    },
    {
        "work-role": "SCCD-W",
        "ksat_id": "T0009",
        "proficiency": "3"
    },
    {
        "work-role": "SCCD-W",
        "ksat_id": "T0010",
        "proficiency": "3"
    },
    {
        "work-role": "SCCD-W",
        "ksat_id": "T0011",
        "proficiency": "2"
    },
    {
        "work-role": "SCCD-W",
        "ksat_id": "T0012",
        "proficiency": "2"
    },
    {
        "work-role": "SCCD-W",
        "ksat_id": "T0013",
        "proficiency": "3"
    },
    {
        "work-role": "SCCD-W",
        "ksat_id": "T0014",
        "proficiency": "2"
    },
    {
        "work-role": "SCCD-W",
        "ksat_id": "T0015",
        "proficiency": "2"
    },
    {
        "work-role": "SCCD-W",
        "ksat_id": "T0016",
        "proficiency": "2"
    },
    {
        "work-role": "SCCD-W",
        "ksat_id": "T0017",
        "proficiency": "2"
    },
    {
        "work-role": "SCCD-W",
        "ksat_id": "T0018",
        "proficiency": "2"
    },
    {
        "work-role": "SCCD-W",
        "ksat_id": "T0019",
        "proficiency": "1"
    },
    {
        "work-role": "SCCD-W",
        "ksat_id": "T0020",
        "proficiency": "2"
    },
    {
        "work-role": "SCCD-W",
        "ksat_id": "T0021",
        "proficiency": "2"
    },
    {
        "work-role": "SCCD-W",
        "ksat_id": "T0022",
        "proficiency": "1"
    },
    {
        "work-role": "SCCD-W",
        "ksat_id": "T0023",
        "proficiency": "2"
    },
    {
        "work-role": "SCCD-W",
        "ksat_id": "T0024",
        "proficiency": "3"
    },
    {
        "work-role": "SCCD-W",
        "ksat_id": "T0025",
        "proficiency": "2"
    },
    {
        "work-role": "SCCD-W",
        "ksat_id": "T0026",
        "proficiency": "2"
    },
    {
        "work-role": "SCCD-W",
        "ksat_id": "T0027",
        "proficiency": "2"
    },
    {
        "work-role": "SCCD-W",
        "ksat_id": "T0028",
        "proficiency": "2"
    },
    {
        "work-role": "SCCD-W",
        "ksat_id": "T0029",
        "proficiency": "2"
    },
    {
        "work-role": "SCCD-W",
        "ksat_id": "T0030",
        "proficiency": "2"
    },
    {
        "work-role": "SCCD-W",
        "ksat_id": "T0031",
        "proficiency": "2"
    },
    {
        "work-role": "SCCD-W",
        "ksat_id": "T0032",
        "proficiency": "2"
    },
    {
        "work-role": "SCCD-W",
        "ksat_id": "T0033",
        "proficiency": "2"
    },
    {
        "work-role": "SCCD-W",
        "ksat_id": "T0034",
        "proficiency": "2"
    },
    {
        "work-role": "SCCD-W",
        "ksat_id": "T0035",
        "proficiency": "2"
    },
    {
        "work-role": "SCCD-W",
        "ksat_id": "T0036",
        "proficiency": "2"
    },
    {
        "work-role": "SCCD-W",
        "ksat_id": "T0037",
        "proficiency": "2"
    },
    {
        "work-role": "SCCD-W",
        "ksat_id": "A0465",
        "proficiency": "2"
    },
    {
        "work-role": "SCCD-W",
        "ksat_id": "A0470",
        "proficiency": "3"
    },
    {
        "work-role": "SCCD-W",
        "ksat_id": "A0471",
        "proficiency": "3"
    },
    {
        "work-role": "SCCD-W",
        "ksat_id": "A0467",
        "proficiency": "3"
    },
    {
        "work-role": "SCCD-W",
        "ksat_id": "A0474",
        "proficiency": "3"
    },
    {
        "work-role": "SCCD-W",
        "ksat_id": "A0472",
        "proficiency": "3"
    },
    {
        "work-role": "SCCD-W",
        "ksat_id": "A0473",
        "proficiency": "3"
    },
    {
        "work-role": "SCCD-W",
        "ksat_id": "A0476",
        "proficiency": "3"
    },
    {
        "work-role": "SCCD-W",
        "ksat_id": "A0477",
        "proficiency": "3"
    },
    {
        "work-role": "SCCD-W",
        "ksat_id": "A0478",
        "proficiency": "3"
    },
    {
        "work-role": "SCCD-W",
        "ksat_id": "A0475",
        "proficiency": "3"
    },
    {
        "work-role": "SCCD-W",
        "ksat_id": "A0479",
        "proficiency": "3"
    },
    {
        "work-role": "SCCD-W",
        "ksat_id": "A0481",
        "proficiency": "2"
    },
    {
        "work-role": "SCCD-W",
        "ksat_id": "A0480",
        "proficiency": "2"
    },
    {
        "work-role": "SCCD-W",
        "ksat_id": "A0482",
        "proficiency": "2"
    },
    {
        "work-role": "SCCD-W",
        "ksat_id": "A0485",
        "proficiency": "3"
    },
    {
        "work-role": "SCCD-W",
        "ksat_id": "A0484",
        "proficiency": "3"
    },
    {
        "work-role": "SCCD-W",
        "ksat_id": "A0486",
        "proficiency": "3"
    },
    {
        "work-role": "SCCD-W",
        "ksat_id": "A0483",
        "proficiency": "3"
    },
    {
        "work-role": "SCCD-W",
        "ksat_id": "A0487",
        "proficiency": "3"
    },
    {
        "work-role": "SCCD-W",
        "ksat_id": "A0490",
        "proficiency": "3"
    },
    {
        "work-role": "SCCD-W",
        "ksat_id": "A0489",
        "proficiency": "3"
    },
    {
        "work-role": "SCCD-W",
        "ksat_id": "A0488",
        "proficiency": "3"
    },
    {
        "work-role": "SCCD-W",
        "ksat_id": "A0492",
        "proficiency": "3"
    },
    {
        "work-role": "SCCD-W",
        "ksat_id": "A0493",
        "proficiency": "3"
    },
    {
        "work-role": "SCCD-W",
        "ksat_id": "A0491",
        "proficiency": "3"
    },
    {
        "work-role": "SCCD-W",
        "ksat_id": "A0494",
        "proficiency": "3"
    },
    {
        "work-role": "SCCD-W",
        "ksat_id": "A0496",
        "proficiency": "2"
    },
    {
        "work-role": "SCCD-W",
        "ksat_id": "A0498",
        "proficiency": "3"
    },
    {
        "work-role": "SCCD-W",
        "ksat_id": "A0469",
        "proficiency": "3"
    },
    {
        "work-role": "SCCD-W",
        "ksat_id": "A0500",
        "proficiency": "3"
    },
    {
        "work-role": "SCCD-W",
        "ksat_id": "A0501",
        "proficiency": "2"
    },
    {
        "work-role": "SCCD-W",
        "ksat_id": "A0502",
        "proficiency": "2"
    },
    {
        "work-role": "SCCD-W",
        "ksat_id": "A0497",
        "proficiency": "3"
    },
    {
        "work-role": "SCCD-W",
        "ksat_id": "A0495",
        "proficiency": "3"
    },
    {
        "work-role": "SCCD-W",
        "ksat_id": "A0503",
        "proficiency": "2"
    },
    {
        "work-role": "SCCD-W",
        "ksat_id": "A0499",
        "proficiency": "3"
    },
    {
        "work-role": "SCCD-W",
        "ksat_id": "A0505",
        "proficiency": "2"
    },
    {
        "work-role": "SCCD-W",
        "ksat_id": "A0507",
        "proficiency": "2"
    },
    {
        "work-role": "SCCD-W",
        "ksat_id": "A0506",
        "proficiency": "2"
    },
    {
        "work-role": "SCCD-W",
        "ksat_id": "A0508",
        "proficiency": "2"
    },
    {
        "work-role": "SCCD-W",
        "ksat_id": "A0511",
        "proficiency": "2"
    },
    {
        "work-role": "SCCD-W",
        "ksat_id": "A0504",
        "proficiency": "2"
    },
    {
        "work-role": "SCCD-W",
        "ksat_id": "A0509",
        "proficiency": "2"
    },
    {
        "work-role": "SCCD-W",
        "ksat_id": "A0510",
        "proficiency": "2"
    },
    {
        "work-role": "SCCD-W",
        "ksat_id": "A0513",
        "proficiency": "2"
    },
    {
        "work-role": "SCCD-W",
        "ksat_id": "A0515",
        "proficiency": "2"
    },
    {
        "work-role": "SCCD-W",
        "ksat_id": "A0512",
        "proficiency": "2"
    },
    {
        "work-role": "SCCD-W",
        "ksat_id": "A0516",
        "proficiency": "2"
    },
    {
        "work-role": "SCCD-W",
        "ksat_id": "A0468",
        "proficiency": "3"
    },
    {
        "work-role": "SCCD-W",
        "ksat_id": "A0466",
        "proficiency": "3"
    },
    {
        "work-role": "SCCD-W",
        "ksat_id": "A0514",
        "proficiency": "2"
    },
    {
        "work-role": "SCCD-W",
        "ksat_id": "A0464",
        "proficiency": "3"
    },
    {
        "work-role": "SCCD-W",
        "ksat_id": "A0517",
        "proficiency": "2"
    },
    {
        "work-role": "SCCD-W",
        "ksat_id": "A0617",
        "proficiency": "2"
    },
    {
        "work-role": "SCCD-W",
        "ksat_id": "S0401",
        "proficiency": "2"
    },
    {
        "work-role": "SCCD-W",
        "ksat_id": "A0621",
        "proficiency": "2"
    },
    {
        "work-role": "SCCD-W",
        "ksat_id": "A0622",
        "proficiency": "2"
    },
    {
        "work-role": "SCCD-W",
        "ksat_id": "S0400",
        "proficiency": "2"
    },
    {
        "work-role": "SCCD-W",
        "ksat_id": "S0399",
        "proficiency": "2"
    },
    {
        "work-role": "SCCD-W",
        "ksat_id": "A0623",
        "proficiency": "3"
    },
    {
        "work-role": "SCCD-W",
        "ksat_id": "S0402",
        "proficiency": "3"
    },
    {
        "work-role": "SCCD-W",
        "ksat_id": "S0381",
        "proficiency": "3"
    },
    {
        "work-role": "SCCD-W",
        "ksat_id": "S0404",
        "proficiency": "2"
    },
    {
        "work-role": "SCCD-W",
        "ksat_id": "S0403",
        "proficiency": "2"
    },
    {
        "work-role": "SCCD-W",
        "ksat_id": "S0407",
        "proficiency": "2"
    },
    {
        "work-role": "SCCD-W",
        "ksat_id": "S0406",
        "proficiency": "2"
    },
    {
        "work-role": "SCCD-W",
        "ksat_id": "S0396",
        "proficiency": ""
    },
    {
        "work-role": "SCCD-W",
        "ksat_id": "A0630",
        "proficiency": ""
    },
    {
        "work-role": "SCCD-W",
        "ksat_id": "S0395",
        "proficiency": ""
    },
    {
        "work-role": "SCCD-W",
        "ksat_id": "S0397",
        "proficiency": ""
    },
    {
        "work-role": "SCCD-W",
        "ksat_id": "K0071",
        "proficiency": ""
    },
    {
        "work-role": "SCCD-W",
        "ksat_id": "K0459",
        "proficiency": ""
    },
    {
        "work-role": "SCCD-W",
        "ksat_id": "K0483",
        "proficiency": "A"
    },
    {
        "work-role": "SCCD-W",
        "ksat_id": "K0484",
        "proficiency": "A"
    },
    {
        "work-role": "SCCD-W",
        "ksat_id": "K0488",
        "proficiency": "A"
    },
    {
        "work-role": "SCCD-W",
        "ksat_id": "K0485",
        "proficiency": "A"
    },
    {
        "work-role": "SCCD-W",
        "ksat_id": "K0486",
        "proficiency": "A"
    },
    {
        "work-role": "SCCD-W",
        "ksat_id": "K0489",
        "proficiency": "B"
    },
    {
        "work-role": "SCCD-W",
        "ksat_id": "K0490",
        "proficiency": "B"
    },
    {
        "work-role": "SCCD-W",
        "ksat_id": "K0491",
        "proficiency": "B"
    },
    {
        "work-role": "SCCD-W",
        "ksat_id": "K0492",
        "proficiency": "B"
    },
    {
        "work-role": "SCCD-W",
        "ksat_id": "K0494",
        "proficiency": "B"
    },
    {
        "work-role": "SCCD-W",
        "ksat_id": "K0493",
        "proficiency": "C"
    },
    {
        "work-role": "SCCD-W",
        "ksat_id": "K0600",
        "proficiency": "A"
    },
    {
        "work-role": "SCCD-W",
        "ksat_id": "K0604",
        "proficiency": "B"
    },
    {
        "work-role": "SCCD-W",
        "ksat_id": "K0603",
        "proficiency": "B"
    },
    {
        "work-role": "SCCD-W",
        "ksat_id": "K0601",
        "proficiency": "B"
    },
    {
        "work-role": "SCCD-W",
        "ksat_id": "K0602",
        "proficiency": "B"
    },
    {
        "work-role": "SCCD-W",
        "ksat_id": "K0605",
        "proficiency": "B"
    },
    {
        "work-role": "SCCD-W",
        "ksat_id": "K0607",
        "proficiency": "B"
    },
    {
        "work-role": "SCCD-W",
        "ksat_id": "K0609",
        "proficiency": "B"
    },
    {
        "work-role": "SCCD-W",
        "ksat_id": "K0608",
        "proficiency": "B"
    },
    {
        "work-role": "SCCD-W",
        "ksat_id": "K0606",
        "proficiency": "B"
    },
    {
        "work-role": "SCCD-W",
        "ksat_id": "K0670",
        "proficiency": "C"
    },
    {
        "work-role": "SCCD-W",
        "ksat_id": "K0671",
        "proficiency": "C"
    },
    {
        "work-role": "SCCD-W",
        "ksat_id": "K0672",
        "proficiency": "B"
    },
    {
        "work-role": "SCCD-W",
        "ksat_id": "K0673",
        "proficiency": "B"
    },
    {
        "work-role": "SCCD-W",
        "ksat_id": "K0675",
        "proficiency": "B"
    },
    {
        "work-role": "SCCD-W",
        "ksat_id": "K0676",
        "proficiency": "B"
    },
    {
        "work-role": "SCCD-W",
        "ksat_id": "K0678",
        "proficiency": "C"
    },
    {
        "work-role": "SCCD-W",
        "ksat_id": "K0679",
        "proficiency": "C"
    },
    {
        "work-role": "SCCD-W",
        "ksat_id": "K0680",
        "proficiency": "C"
    },
    {
        "work-role": "SCCD-W",
        "ksat_id": "K0681",
        "proficiency": "C"
    },
    {
        "work-role": "SCCD-W",
        "ksat_id": "K0682",
        "proficiency": "C"
    },
    {
        "work-role": "SCCD-W",
        "ksat_id": "K0683",
        "proficiency": "C"
    },
    {
        "work-role": "SCCD-W",
        "ksat_id": "K0684",
        "proficiency": "B"
    },
    {
        "work-role": "SCCD-W",
        "ksat_id": "K0685",
        "proficiency": "C"
    },
    {
        "work-role": "SCCD-W",
        "ksat_id": "K0687",
        "proficiency": "C"
    },
    {
        "work-role": "SCCD-W",
        "ksat_id": "K0688",
        "proficiency": "C"
    },
    {
        "work-role": "SCCD-W",
        "ksat_id": "K0689",
        "proficiency": "C"
    },
    {
        "work-role": "SCCD-W",
        "ksat_id": "K0690",
        "proficiency": "C"
    },
    {
        "work-role": "SCCD-W",
        "ksat_id": "K0691",
        "proficiency": "C"
    },
    {
        "work-role": "SCCD-W",
        "ksat_id": "K0692",
        "proficiency": "C"
    },
    {
        "work-role": "SCCD-W",
        "ksat_id": "K0693",
        "proficiency": "B"
    },
    {
        "work-role": "SCCD-W",
        "ksat_id": "K0694",
        "proficiency": "B"
    },
    {
        "work-role": "SCCD-W",
        "ksat_id": "K0695",
        "proficiency": "C"
    },
    {
        "work-role": "SCCD-W",
        "ksat_id": "K0700",
        "proficiency": "C"
    },
    {
        "work-role": "SCCD-W",
        "ksat_id": "K0701",
        "proficiency": "C"
    },
    {
        "work-role": "SCCD-W",
        "ksat_id": "K0702",
        "proficiency": "B"
    },
    {
        "work-role": "SCCD-W",
        "ksat_id": "K0703",
        "proficiency": "C"
    },
    {
        "work-role": "SCCD-W",
        "ksat_id": "K0704",
        "proficiency": "B"
    },
    {
        "work-role": "SCCD-W",
        "ksat_id": "K0705",
        "proficiency": "C"
    },
    {
        "work-role": "SCCD-W",
        "ksat_id": "K0707",
        "proficiency": "B"
    },
    {
        "work-role": "SCCD-W",
        "ksat_id": "K0708",
        "proficiency": "B"
    },
    {
        "work-role": "SCCD-W",
        "ksat_id": "K0709",
        "proficiency": "B"
    },
    {
        "work-role": "SCCD-W",
        "ksat_id": "S0015",
        "proficiency": ""
    },
    {
        "work-role": "SCCD-W",
        "ksat_id": "S0105",
        "proficiency": ""
    },
    {
        "work-role": "SCCD-W",
        "ksat_id": "S0131",
        "proficiency": ""
    },
    {
        "work-role": "SCCD-W",
        "ksat_id": "S0133",
        "proficiency": ""
    },
    {
        "work-role": "SCCD-W",
        "ksat_id": "S0135",
        "proficiency": ""
    },
    {
        "work-role": "SCCD-W",
        "ksat_id": "S0137",
        "proficiency": ""
    },
    {
        "work-role": "SCCD-W",
        "ksat_id": "S0140",
        "proficiency": ""
    },
    {
        "work-role": "SCCD-W",
        "ksat_id": "S0142",
        "proficiency": ""
    },
    {
        "work-role": "SCCD-W",
        "ksat_id": "S0398",
        "proficiency": "3"
    },
    {
        "work-role": "SCCD-W",
        "ksat_id": "S0245",
        "proficiency": ""
    },
    {
        "work-role": "SCCD-W",
        "ksat_id": "S0278",
        "proficiency": "2"
    },
    {
        "work-role": "SCCD-W",
        "ksat_id": "S0279",
        "proficiency": "2"
    },
    {
        "work-role": "SCCD-W",
        "ksat_id": "S0280",
        "proficiency": ""
    },
    {
        "work-role": "SCCD-W",
        "ksat_id": "S0281",
        "proficiency": ""
    },
    {
        "work-role": "SCCD-W",
        "ksat_id": "S0282",
        "proficiency": ""
    },
    {
        "work-role": "SCCD-W",
        "ksat_id": "S0283",
        "proficiency": ""
    },
    {
        "work-role": "SCCD-W",
        "ksat_id": "S0286",
        "proficiency": "2"
    },
    {
        "work-role": "SCCD-W",
        "ksat_id": "S0287",
        "proficiency": "2"
    },
    {
        "work-role": "SCCD-W",
        "ksat_id": "S0288",
        "proficiency": "2"
    },
    {
        "work-role": "SCCD-W",
        "ksat_id": "S0289",
        "proficiency": ""
    },
    {
        "work-role": "SCCD-W",
        "ksat_id": "S0290",
        "proficiency": "2"
    },
    {
        "work-role": "SCCD-W",
        "ksat_id": "S0291",
        "proficiency": "2"
    },
    {
        "work-role": "SCCD-W",
        "ksat_id": "S0292",
        "proficiency": "2"
    },
    {
        "work-role": "SCCD-W",
        "ksat_id": "S0293",
        "proficiency": ""
    }   
]
