[
    {
        "work-role": "SEE",
        "ksat_id": "S0213",
        "proficiency": "3"
    },
    {
        "work-role": "SEE",
        "ksat_id": "S0214",
        "proficiency": "3"
    },
    {
        "work-role": "SEE",
        "ksat_id": "S0217",
        "proficiency": "3"
    },
    {
        "work-role": "SEE",
        "ksat_id": "S0216",
        "proficiency": "3"
    },
    {
        "work-role": "SEE",
        "ksat_id": "S0218",
        "proficiency": "3"
    },
    {
        "work-role": "SEE",
        "ksat_id": "S0219",
        "proficiency": "3"
    },
    {
        "work-role": "SEE",
        "ksat_id": "S0220",
        "proficiency": "3"
    },
    {
        "work-role": "SEE",
        "ksat_id": "S0221",
        "proficiency": "3"
    },
    {
        "work-role": "SEE",
        "ksat_id": "S0222",
        "proficiency": "3"
    },
    {
        "work-role": "SEE",
        "ksat_id": "S0215",
        "proficiency": "3"
    },
    {
        "work-role": "SEE",
        "ksat_id": "S0225",
        "proficiency": "3"
    },
    {
        "work-role": "SEE",
        "ksat_id": "S0224",
        "proficiency": "3"
    },
    {
        "work-role": "SEE",
        "ksat_id": "S0223",
        "proficiency": "3"
    },
    {
        "work-role": "SEE",
        "ksat_id": "S0226",
        "proficiency": "3"
    },
    {
        "work-role": "SEE",
        "ksat_id": "S0227",
        "proficiency": "3"
    },
    {
        "work-role": "SEE",
        "ksat_id": "S0228",
        "proficiency": "3"
    },
    {
        "work-role": "SEE",
        "ksat_id": "S0231",
        "proficiency": "3"
    },
    {
        "work-role": "SEE",
        "ksat_id": "S0229",
        "proficiency": "3"
    },
    {
        "work-role": "SEE",
        "ksat_id": "S0233",
        "proficiency": "3"
    },
    {
        "work-role": "SEE",
        "ksat_id": "S0230",
        "proficiency": "3"
    },
    {
        "work-role": "SEE",
        "ksat_id": "S0234",
        "proficiency": "3"
    },
    {
        "work-role": "SEE",
        "ksat_id": "S0232",
        "proficiency": "3"
    },
    {
        "work-role": "SEE",
        "ksat_id": "S0237",
        "proficiency": "3"
    },
    {
        "work-role": "SEE",
        "ksat_id": "S0238",
        "proficiency": "3"
    },
    {
        "work-role": "SEE",
        "ksat_id": "S0235",
        "proficiency": "3"
    },
    {
        "work-role": "SEE",
        "ksat_id": "S0236",
        "proficiency": "3"
    },
    {
        "work-role": "SEE",
        "ksat_id": "S0239",
        "proficiency": "3"
    },
    {
        "work-role": "SEE",
        "ksat_id": "T0043",
        "proficiency": "3"
    },
    {
        "work-role": "SEE",
        "ksat_id": "A0746",
        "proficiency": "3"
    }
]